{ "operation": "channelmixerrgb"
, "iopdata": [ { "modversion": 3
               , "iop_order": 42.0
               , "smooth": "eval: 6 * 4 * [True] + 6 * [False] + 4 * [False] + 4 * [True] + 2 * [False]"
               , "cformat": "24f6i4i4fii"
               }
             ]
, "help": "Smoothing for the channelmixerrgb module (color calibration)."
, "license": "GPL-3.0-or-later"
, "copyright": []
}
